; Engine configuration file.
; It's best edited using the editor UI and not directly,
; since the parameters that go here are not all obvious.
;
; Format:
;   [section] ; section goes between []
;   param=value ; assign values to parameters

config_version=5

[application]

config/name="advancedPathfinding"
run/main_scene="res://world/world.tscn"
config/features=PackedStringArray("4.2", "GL Compatibility")
config/icon="res://art/icon.svg"

[display]

window/stretch/mode="viewport"

[layer_names]

2d_physics/layer_1="world"
2d_physics/layer_2="player"
2d_physics/layer_3="enemy"

[rendering]

textures/canvas_textures/default_texture_filter=0
renderer/rendering_method="gl_compatibility"
renderer/rendering_method.mobile="gl_compatibility"
